{"status":200,"title":"Success!","data":{"current_page":1,"data":[{"id":3,"uuid":"9e397da9-73e9-4c01-b3ef-3b83bc3713d0","name":"John Doe","email":"agent@test.com","thumbnail_image_path":"https:\/\/ui-avatars.com\/api\/?name=John+Doe&color=7F9CF5&background=EBF4FF","parent_id":null,"mobile":"056 913 12312","team_id":null,"bio":null,"image_path":null,"display_order":null,"designation":"Agent","created_at":"2025-07-04T05:32:39.000000Z","is_available_for_leads":true,"is_microsoft_synced":false,"is_google_synced":false,"user_meta":[],"parent":null,"team":null,"languages":[],"roles":[{"id":4,"name":"Agent","pivot":{"model_type":"App\\Models\\User","model_id":3,"role_id":4}}],"department":null},{"id":4,"uuid":"3b9e6ac1-7118-42f3-adcd-d524f7fad25f","name":"Raza Malik","email":"rm@guild-realestate.com","thumbnail_image_path":"https:\/\/elist-solz.s3.ap-south-1.amazonaws.com\/guild_real_estate\/upload\/listings\/thumbnail_400x520.jpg6915a55dd297b.jpg","parent_id":32,"mobile":"+971522870131","team_id":null,"bio":"With over 20 years in real estate, Raza Malik is known for his expertise, dedication, and client-first approach. He has built a reputation for guiding buyers, sellers, and investors with integrity and delivering results that exceed expectations.\n\nAs Head of Sales, Raza leads and mentors a dynamic team of property consultants, equipping them with the knowledge and strategies to thrive in Dubai\u2019s competitive market. His focus is on developing agents who not only close deals but also build lasting client relationships and advise on long-term investment\u00a0opportunities.","image_path":"https:\/\/elist-solz.s3.ap-south-1.amazonaws.com\/guild_real_estate\/upload\/listings\/400x520.jpg6915a55dd297b.jpg","display_order":null,"designation":"Head of Sales","created_at":"2025-08-12T08:29:50.000000Z","is_available_for_leads":true,"is_microsoft_synced":false,"is_google_synced":false,"user_meta":[{"id":11,"user_id":4,"meta_key":"property_finder_public_profile_id","meta_value":"337035","created_at":"2025-10-14T11:13:39.000000Z","updated_at":"2025-10-14T11:13:39.000000Z"},{"id":12,"user_id":4,"meta_key":"property_finder_private_user_id","meta_value":"594335","created_at":"2025-10-14T11:13:39.000000Z","updated_at":"2025-10-14T11:13:39.000000Z"},{"id":48,"user_id":4,"meta_key":"property_finder_user_superagent","meta_value":"0","created_at":"2025-12-30T10:01:17.000000Z","updated_at":"2026-03-19T13:30:14.000000Z"},{"id":49,"user_id":4,"meta_key":"property_finder_user_verified","meta_value":"Verified","created_at":"2025-12-30T10:01:17.000000Z","updated_at":"2025-12-30T10:01:17.000000Z"},{"id":50,"user_id":4,"meta_key":"property_finder_user_id","meta_value":"337035","created_at":"2025-12-30T10:01:17.000000Z","updated_at":"2025-12-30T10:01:17.000000Z"}],"parent":{"id":32,"name":"Shady Gouda","is_microsoft_synced":false,"is_google_synced":false,"user_meta":[{"id":72,"user_id":32,"meta_key":"property_finder_public_profile_id","meta_value":"363859","created_at":"2026-02-13T05:50:19.000000Z","updated_at":"2026-02-13T05:50:19.000000Z"},{"id":71,"user_id":32,"meta_key":"property_finder_user_id","meta_value":"363859","created_at":"2026-01-30T08:00:19.000000Z","updated_at":"2026-01-30T08:00:19.000000Z"},{"id":73,"user_id":32,"meta_key":"property_finder_private_user_id","meta_value":"607717","created_at":"2026-02-13T05:50:19.000000Z","updated_at":"2026-02-13T05:50:19.000000Z"},{"id":70,"user_id":32,"meta_key":"property_finder_user_verified","meta_value":"Verified","created_at":"2026-01-30T08:00:19.000000Z","updated_at":"2026-02-13T13:00:35.000000Z"},{"id":69,"user_id":32,"meta_key":"property_finder_user_superagent","meta_value":"0","created_at":"2026-01-30T08:00:19.000000Z","updated_at":"2026-03-19T14:00:39.000000Z"}]},"team":null,"languages":[],"roles":[{"id":4,"name":"Agent","pivot":{"model_type":"App\\Models\\User","model_id":4,"role_id":4}}],"department":null},{"id":5,"uuid":"7c37d55f-5999-4358-8798-b976f90a6d09","name":"Emma Brown","email":"ebrown@guild-realestate.com","thumbnail_image_path":"https:\/\/elist-solz.s3.ap-south-1.amazonaws.com\/guild_real_estate\/upload\/listings\/thumbnail_Emma_400x520.jpg68f74bb5a9705.jpg","parent_id":32,"mobile":"+971522965518","team_id":null,"bio":"With extensive experience in Dubai\u2019s off-plan and secondary markets, Emma Brown is known for her client-focused approach and deep market knowledge. \n\nShe\u2019s passionate about helping investors identify high-performing opportunities and families find their perfect home.\n\nAs part of Guild Real Estate, Emma combines expertise, transparency, and genuine care to make every real estate journey seamless and rewarding.","image_path":"https:\/\/elist-solz.s3.ap-south-1.amazonaws.com\/guild_real_estate\/upload\/listings\/Emma_400x520.jpg68f74bb5a9705.jpg","display_order":null,"designation":"Property Sales Consultant","created_at":"2025-08-25T06:33:00.000000Z","is_available_for_leads":true,"is_microsoft_synced":false,"is_google_synced":false,"user_meta":[{"id":13,"user_id":5,"meta_key":"property_finder_public_profile_id","meta_value":"339848","created_at":"2025-10-21T09:39:16.000000Z","updated_at":"2025-10-21T09:39:16.000000Z"},{"id":14,"user_id":5,"meta_key":"property_finder_private_user_id","meta_value":"596737","created_at":"2025-10-21T09:39:16.000000Z","updated_at":"2025-10-21T09:39:16.000000Z"},{"id":46,"user_id":5,"meta_key":"property_finder_user_verified","meta_value":"Verified","created_at":"2025-12-30T10:01:16.000000Z","updated_at":"2025-12-30T10:01:16.000000Z"},{"id":47,"user_id":5,"meta_key":"property_finder_user_id","meta_value":"339848","created_at":"2025-12-30T10:01:16.000000Z","updated_at":"2025-12-30T10:01:16.000000Z"},{"id":45,"user_id":5,"meta_key":"property_finder_user_superagent","meta_value":"0","created_at":"2025-12-30T10:01:16.000000Z","updated_at":"2026-03-19T13:30:13.000000Z"}],"parent":{"id":32,"name":"Shady Gouda","is_microsoft_synced":false,"is_google_synced":false,"user_meta":[{"id":72,"user_id":32,"meta_key":"property_finder_public_profile_id","meta_value":"363859","created_at":"2026-02-13T05:50:19.000000Z","updated_at":"2026-02-13T05:50:19.000000Z"},{"id":71,"user_id":32,"meta_key":"property_finder_user_id","meta_value":"363859","created_at":"2026-01-30T08:00:19.000000Z","updated_at":"2026-01-30T08:00:19.000000Z"},{"id":73,"user_id":32,"meta_key":"property_finder_private_user_id","meta_value":"607717","created_at":"2026-02-13T05:50:19.000000Z","updated_at":"2026-02-13T05:50:19.000000Z"},{"id":70,"user_id":32,"meta_key":"property_finder_user_verified","meta_value":"Verified","created_at":"2026-01-30T08:00:19.000000Z","updated_at":"2026-02-13T13:00:35.000000Z"},{"id":69,"user_id":32,"meta_key":"property_finder_user_superagent","meta_value":"0","created_at":"2026-01-30T08:00:19.000000Z","updated_at":"2026-03-19T14:00:39.000000Z"}]},"team":null,"languages":[{"id":15,"name":"English","pivot":{"languageable_type":"App\\Models\\User","languageable_id":5,"language_id":15}}],"roles":[{"id":4,"name":"Agent","pivot":{"model_type":"App\\Models\\User","model_id":5,"role_id":4}}],"department":null},{"id":6,"uuid":"c1910270-3efe-41fc-9255-a6bcb69aa50e","name":"Rameez Noorbhai","email":"rnoorbhai@guild-realestate.com","thumbnail_image_path":"https:\/\/elist-solz.s3.ap-south-1.amazonaws.com\/guild_real_estate\/upload\/listings\/thumbnail_400x520.jpg6915a4dc4d219.jpg","parent_id":32,"mobile":"+971522793214","team_id":null,"bio":null,"image_path":"https:\/\/elist-solz.s3.ap-south-1.amazonaws.com\/guild_real_estate\/upload\/listings\/400x520.jpg6915a4dc4d219.jpg","display_order":null,"designation":"Property Sales Consultant","created_at":"2025-08-25T06:35:04.000000Z","is_available_for_leads":true,"is_microsoft_synced":false,"is_google_synced":false,"user_meta":[],"parent":{"id":32,"name":"Shady Gouda","is_microsoft_synced":false,"is_google_synced":false,"user_meta":[{"id":72,"user_id":32,"meta_key":"property_finder_public_profile_id","meta_value":"363859","created_at":"2026-02-13T05:50:19.000000Z","updated_at":"2026-02-13T05:50:19.000000Z"},{"id":71,"user_id":32,"meta_key":"property_finder_user_id","meta_value":"363859","created_at":"2026-01-30T08:00:19.000000Z","updated_at":"2026-01-30T08:00:19.000000Z"},{"id":73,"user_id":32,"meta_key":"property_finder_private_user_id","meta_value":"607717","created_at":"2026-02-13T05:50:19.000000Z","updated_at":"2026-02-13T05:50:19.000000Z"},{"id":70,"user_id":32,"meta_key":"property_finder_user_verified","meta_value":"Verified","created_at":"2026-01-30T08:00:19.000000Z","updated_at":"2026-02-13T13:00:35.000000Z"},{"id":69,"user_id":32,"meta_key":"property_finder_user_superagent","meta_value":"0","created_at":"2026-01-30T08:00:19.000000Z","updated_at":"2026-03-19T14:00:39.000000Z"}]},"team":null,"languages":[],"roles":[{"id":4,"name":"Agent","pivot":{"model_type":"App\\Models\\User","model_id":6,"role_id":4}}],"department":null},{"id":7,"uuid":"5981cbb1-7bfd-47b2-89fb-98c7201bbe7e","name":"Farnaaz Ismail","email":"fIsmail@guild-realestate.com","thumbnail_image_path":"https:\/\/ui-avatars.com\/api\/?name=Farnaaz+Ismail&color=7F9CF5&background=EBF4FF","parent_id":4,"mobile":"00","team_id":null,"bio":null,"image_path":null,"display_order":null,"designation":"Property Sales Consultant","created_at":"2025-08-25T06:35:58.000000Z","is_available_for_leads":true,"is_microsoft_synced":false,"is_google_synced":false,"user_meta":[],"parent":{"id":4,"name":"Raza Malik","is_microsoft_synced":false,"is_google_synced":false,"user_meta":[{"id":11,"user_id":4,"meta_key":"property_finder_public_profile_id","meta_value":"337035","created_at":"2025-10-14T11:13:39.000000Z","updated_at":"2025-10-14T11:13:39.000000Z"},{"id":12,"user_id":4,"meta_key":"property_finder_private_user_id","meta_value":"594335","created_at":"2025-10-14T11:13:39.000000Z","updated_at":"2025-10-14T11:13:39.000000Z"},{"id":48,"user_id":4,"meta_key":"property_finder_user_superagent","meta_value":"0","created_at":"2025-12-30T10:01:17.000000Z","updated_at":"2026-03-19T13:30:14.000000Z"},{"id":49,"user_id":4,"meta_key":"property_finder_user_verified","meta_value":"Verified","created_at":"2025-12-30T10:01:17.000000Z","updated_at":"2025-12-30T10:01:17.000000Z"},{"id":50,"user_id":4,"meta_key":"property_finder_user_id","meta_value":"337035","created_at":"2025-12-30T10:01:17.000000Z","updated_at":"2025-12-30T10:01:17.000000Z"}]},"team":null,"languages":[{"id":15,"name":"English","pivot":{"languageable_type":"App\\Models\\User","languageable_id":7,"language_id":15}}],"roles":[{"id":4,"name":"Agent","pivot":{"model_type":"App\\Models\\User","model_id":7,"role_id":4}}],"department":null},{"id":8,"uuid":"c05769a3-53d2-4d9b-9bd2-129a0348072a","name":"Liz Gapunuan","email":"lg@guild-realestate.com","thumbnail_image_path":"https:\/\/elist-solz.s3.ap-south-1.amazonaws.com\/guild_real_estate\/upload\/listings\/thumbnail_Ms.Liz_400X520.jpg6915ad39aa218.jpg","parent_id":13,"mobile":"+971565241997","team_id":null,"bio":null,"image_path":"https:\/\/elist-solz.s3.ap-south-1.amazonaws.com\/guild_real_estate\/upload\/listings\/Ms.Liz_400X520.jpg6915ad39aa218.jpg","display_order":null,"designation":"Head of Operation","created_at":"2025-08-25T06:43:49.000000Z","is_available_for_leads":true,"is_microsoft_synced":false,"is_google_synced":false,"user_meta":[{"id":17,"user_id":8,"meta_key":"property_finder_public_profile_id","meta_value":"331628","created_at":"2025-11-20T10:27:57.000000Z","updated_at":"2025-11-20T10:27:57.000000Z"},{"id":18,"user_id":8,"meta_key":"property_finder_private_user_id","meta_value":"591024","created_at":"2025-11-20T10:27:57.000000Z","updated_at":"2025-11-20T10:27:57.000000Z"},{"id":43,"user_id":8,"meta_key":"property_finder_user_verified","meta_value":"Incomplete","created_at":"2025-12-30T10:01:14.000000Z","updated_at":"2025-12-30T10:01:14.000000Z"},{"id":44,"user_id":8,"meta_key":"property_finder_user_id","meta_value":"331628","created_at":"2025-12-30T10:01:14.000000Z","updated_at":"2025-12-30T10:01:14.000000Z"},{"id":42,"user_id":8,"meta_key":"property_finder_user_superagent","meta_value":"0","created_at":"2025-12-30T10:01:14.000000Z","updated_at":"2026-03-19T13:30:11.000000Z"}],"parent":{"id":13,"name":"Ray Tsang","is_microsoft_synced":false,"is_google_synced":false,"user_meta":[]},"team":null,"languages":[],"roles":[{"id":1,"name":"Super Admin","pivot":{"model_type":"App\\Models\\User","model_id":8,"role_id":1}},{"id":2,"name":"Admin","pivot":{"model_type":"App\\Models\\User","model_id":8,"role_id":2}},{"id":3,"name":"Manager","pivot":{"model_type":"App\\Models\\User","model_id":8,"role_id":3}}],"department":null},{"id":12,"uuid":"6c69eca0-2b18-4ae7-b27d-87e8e77d5da4","name":"Sid Bhardwaj","email":"sid@guild-realestate.com","thumbnail_image_path":"https:\/\/elist-solz.s3.ap-south-1.amazonaws.com\/guild_real_estate\/upload\/listings\/thumbnail_400x520.jpg6915a52309952.jpg","parent_id":null,"mobile":"","team_id":null,"bio":"With over 15 years of real estate experience in off-plan investments and VIP portfolio management, Siddharth's global expertise in Europe, the US, UAE, India, and Australia enhances GUILD\u2019s strategies for long-term client value.\n\nSiddharth is a visionary leader, guiding teams to execute complex investment strategies with precision and expertise.\n\nHis leadership combines sharp insight with decisive action, consistently driving growth and innovation. Under his guidance, high-net-worth clients achieve exceptional, long-term value and results that set new industry standards.\n\nAdditionally, his extensive global experience enhances GUILD\u2019s tailored strategies for maximum client impact.","image_path":"https:\/\/elist-solz.s3.ap-south-1.amazonaws.com\/guild_real_estate\/upload\/listings\/400x520.jpg6915a52309952.jpg","display_order":null,"designation":"Managing Director","created_at":"2025-08-25T07:34:12.000000Z","is_available_for_leads":true,"is_microsoft_synced":false,"is_google_synced":false,"user_meta":[{"id":64,"user_id":12,"meta_key":"property_finder_public_profile_id","meta_value":"333901","created_at":"2026-01-23T06:10:16.000000Z","updated_at":"2026-01-23T06:10:16.000000Z"},{"id":65,"user_id":12,"meta_key":"property_finder_private_user_id","meta_value":"592587","created_at":"2026-01-23T06:10:16.000000Z","updated_at":"2026-01-23T06:10:16.000000Z"}],"parent":null,"team":null,"languages":[],"roles":[{"id":4,"name":"Agent","pivot":{"model_type":"App\\Models\\User","model_id":12,"role_id":4}}],"department":null},{"id":13,"uuid":"8bcbb8a5-2e3f-4833-9b5e-a8c952caff1d","name":"Ray Tsang","email":"ray@guild-realestate.com","thumbnail_image_path":"https:\/\/elist-solz.s3.ap-south-1.amazonaws.com\/guild_real_estate\/upload\/listings\/thumbnail_400x520.jpg6915a5de8b1e5.jpg","parent_id":14,"mobile":"+971554983109","team_id":null,"bio":null,"image_path":"https:\/\/elist-solz.s3.ap-south-1.amazonaws.com\/guild_real_estate\/upload\/listings\/400x520.jpg6915a5de8b1e5.jpg","display_order":null,"designation":"Managing Director","created_at":"2025-08-25T07:39:22.000000Z","is_available_for_leads":true,"is_microsoft_synced":false,"is_google_synced":false,"user_meta":[],"parent":{"id":14,"name":"Martyn Mclaughlin","is_microsoft_synced":false,"is_google_synced":false,"user_meta":[{"id":1,"user_id":14,"meta_key":"property_finder_public_profile_id","meta_value":"331786","created_at":"2025-09-23T07:13:53.000000Z","updated_at":"2025-09-23T07:13:53.000000Z"},{"id":2,"user_id":14,"meta_key":"property_finder_private_user_id","meta_value":"591157","created_at":"2025-09-23T07:13:53.000000Z","updated_at":"2025-09-23T07:13:53.000000Z"},{"id":37,"user_id":14,"meta_key":"property_finder_user_verified","meta_value":"Verified","created_at":"2025-12-30T10:01:11.000000Z","updated_at":"2025-12-30T10:01:11.000000Z"},{"id":38,"user_id":14,"meta_key":"property_finder_user_id","meta_value":"331786","created_at":"2025-12-30T10:01:11.000000Z","updated_at":"2025-12-30T10:01:11.000000Z"},{"id":36,"user_id":14,"meta_key":"property_finder_user_superagent","meta_value":"1","created_at":"2025-12-30T10:01:11.000000Z","updated_at":"2026-03-19T14:00:49.000000Z"}]},"team":null,"languages":[],"roles":[{"id":3,"name":"Manager","pivot":{"model_type":"App\\Models\\User","model_id":13,"role_id":3}}],"department":null},{"id":14,"uuid":"0fa3b433-5f1e-4193-9f6e-f3e4b9ebe692","name":"Martyn Mclaughlin","email":"admin@guild-realestate.com","thumbnail_image_path":"https:\/\/elist-solz.s3.ap-south-1.amazonaws.com\/guild_real_estate\/upload\/listings\/thumbnail_400x520.jpg6915ace369163.jpg","parent_id":null,"mobile":"+971521806540","team_id":null,"bio":"With over 7 years of experience in the UAE real estate market, Martyn Thomas brings a unique blend of property expertise and financial strategy to GUILD.\n\nSpecializing in off-plan developments, luxury residential sales, and investment-driven projects, he guides clients through complex deals with clarity and confidence.\n\nMartyn\u2019s leadership combines deep financial insight with a thorough understanding of property performance, enabling him to craft strategic solutions that drive growth and deliver consistent results.\n\nHis expertise strengthens GUILD\u2019s investment strategies, helping clients achieve exceptional outcomes and long-term success.","image_path":"https:\/\/elist-solz.s3.ap-south-1.amazonaws.com\/guild_real_estate\/upload\/listings\/400x520.jpg6915ace369163.jpg","display_order":null,"designation":"Founder","created_at":"2025-08-25T07:42:17.000000Z","is_available_for_leads":true,"is_microsoft_synced":false,"is_google_synced":false,"user_meta":[{"id":1,"user_id":14,"meta_key":"property_finder_public_profile_id","meta_value":"331786","created_at":"2025-09-23T07:13:53.000000Z","updated_at":"2025-09-23T07:13:53.000000Z"},{"id":2,"user_id":14,"meta_key":"property_finder_private_user_id","meta_value":"591157","created_at":"2025-09-23T07:13:53.000000Z","updated_at":"2025-09-23T07:13:53.000000Z"},{"id":37,"user_id":14,"meta_key":"property_finder_user_verified","meta_value":"Verified","created_at":"2025-12-30T10:01:11.000000Z","updated_at":"2025-12-30T10:01:11.000000Z"},{"id":38,"user_id":14,"meta_key":"property_finder_user_id","meta_value":"331786","created_at":"2025-12-30T10:01:11.000000Z","updated_at":"2025-12-30T10:01:11.000000Z"},{"id":36,"user_id":14,"meta_key":"property_finder_user_superagent","meta_value":"1","created_at":"2025-12-30T10:01:11.000000Z","updated_at":"2026-03-19T14:00:49.000000Z"}],"parent":null,"team":null,"languages":[],"roles":[{"id":3,"name":"Manager","pivot":{"model_type":"App\\Models\\User","model_id":14,"role_id":3}},{"id":4,"name":"Agent","pivot":{"model_type":"App\\Models\\User","model_id":14,"role_id":4}}],"department":null},{"id":15,"uuid":"58e5a01f-3b70-4744-ab5b-50e805c26693","name":"Umar Mirza","email":"umirza@guild-realestate.com","thumbnail_image_path":"https:\/\/elist-solz.s3.ap-south-1.amazonaws.com\/guild_real_estate\/upload\/listings\/thumbnail_400x520.jpg68ee39aee3d3b.jpg","parent_id":32,"mobile":"+971522651032","team_id":null,"bio":"Bringing three years of UK and Dubai experience, Umar specializes in offplan investments with a strong focus on Dubai Hills, combining market knowledge, innovation, and a client-first approach.\n\nSpecializing in off-plan properties and Dubai Hills, he focuses on helping clients expand their portfolios with strategies that are clear, effective, and future-focused.\n\nDedicated to continuous growth, Umar embraces the latest tools, technology, and market insights to deliver opportunities that create long-term value.\n\nHis mission is to build trust, simplify decisions, and turn every investment\ninto lasting success.","image_path":"https:\/\/elist-solz.s3.ap-south-1.amazonaws.com\/guild_real_estate\/upload\/listings\/400x520.jpg68ee39aee3d3b.jpg","display_order":null,"designation":"Property Consultant","created_at":"2025-09-04T07:19:29.000000Z","is_available_for_leads":true,"is_microsoft_synced":false,"is_google_synced":false,"user_meta":[{"id":3,"user_id":15,"meta_key":"property_finder_public_profile_id","meta_value":"338891","created_at":"2025-09-23T07:16:17.000000Z","updated_at":"2025-09-23T07:16:17.000000Z"},{"id":4,"user_id":15,"meta_key":"property_finder_private_user_id","meta_value":"595889","created_at":"2025-09-23T07:16:17.000000Z","updated_at":"2025-09-23T07:16:17.000000Z"},{"id":34,"user_id":15,"meta_key":"property_finder_user_verified","meta_value":"Verified","created_at":"2025-12-30T10:01:10.000000Z","updated_at":"2025-12-30T10:01:10.000000Z"},{"id":35,"user_id":15,"meta_key":"property_finder_user_id","meta_value":"338891","created_at":"2025-12-30T10:01:10.000000Z","updated_at":"2025-12-30T10:01:10.000000Z"},{"id":33,"user_id":15,"meta_key":"property_finder_user_superagent","meta_value":"0","created_at":"2025-12-30T10:01:10.000000Z","updated_at":"2026-03-19T14:00:48.000000Z"}],"parent":{"id":32,"name":"Shady Gouda","is_microsoft_synced":false,"is_google_synced":false,"user_meta":[{"id":72,"user_id":32,"meta_key":"property_finder_public_profile_id","meta_value":"363859","created_at":"2026-02-13T05:50:19.000000Z","updated_at":"2026-02-13T05:50:19.000000Z"},{"id":71,"user_id":32,"meta_key":"property_finder_user_id","meta_value":"363859","created_at":"2026-01-30T08:00:19.000000Z","updated_at":"2026-01-30T08:00:19.000000Z"},{"id":73,"user_id":32,"meta_key":"property_finder_private_user_id","meta_value":"607717","created_at":"2026-02-13T05:50:19.000000Z","updated_at":"2026-02-13T05:50:19.000000Z"},{"id":70,"user_id":32,"meta_key":"property_finder_user_verified","meta_value":"Verified","created_at":"2026-01-30T08:00:19.000000Z","updated_at":"2026-02-13T13:00:35.000000Z"},{"id":69,"user_id":32,"meta_key":"property_finder_user_superagent","meta_value":"0","created_at":"2026-01-30T08:00:19.000000Z","updated_at":"2026-03-19T14:00:39.000000Z"}]},"team":null,"languages":[],"roles":[{"id":4,"name":"Agent","pivot":{"model_type":"App\\Models\\User","model_id":15,"role_id":4}}],"department":null}],"first_page_url":"https:\/\/app.guild-realestate.com\/backend\/api\/ajax\/get-all-agents?page=1","from":1,"last_page":3,"last_page_url":"https:\/\/app.guild-realestate.com\/backend\/api\/ajax\/get-all-agents?page=3","links":[{"url":null,"label":"&laquo; Previous","active":false},{"url":"https:\/\/app.guild-realestate.com\/backend\/api\/ajax\/get-all-agents?page=1","label":"1","active":true},{"url":"https:\/\/app.guild-realestate.com\/backend\/api\/ajax\/get-all-agents?page=2","label":"2","active":false},{"url":"https:\/\/app.guild-realestate.com\/backend\/api\/ajax\/get-all-agents?page=3","label":"3","active":false},{"url":"https:\/\/app.guild-realestate.com\/backend\/api\/ajax\/get-all-agents?page=2","label":"Next &raquo;","active":false}],"next_page_url":"https:\/\/app.guild-realestate.com\/backend\/api\/ajax\/get-all-agents?page=2","path":"https:\/\/app.guild-realestate.com\/backend\/api\/ajax\/get-all-agents","per_page":10,"prev_page_url":null,"to":10,"total":26},"message":"Retrieved Successfully"}